Requested at: <?=$requested_at;?>

User: <?=$user;?>

Partner: <?=$partner;?>

Client: <?=$client;?>


A request has been made to merge the following policies:
<?= implode(",",$policy_array); ?>


<?= str_pad("Policy Number", 25)." | ".str_pad("Provider",35)." | ID" ?>

<?= str_repeat("-",80); ?>

<?php
foreach ($policy_array as $policy) {

    $pol = new Policy($policy, true);

    echo str_pad($pol->number(),25)." | ".str_pad( $pol->issuer->__toString(), 35 )." | ".$pol->id()."
";
}
?>


REMEMBER TO AUDIT THE CHANGE IN THE DATABASE CHANGE TABLE. SOON WE SHALL AUTOMATE.

Make it so,
Prophet.


